%YAML 1.1
%TAG !u! tag:unity3d.com,2011:
--- !u!74 &7400000
AnimationClip:
  m_ObjectHideFlags: 0
  m_CorrespondingSourceObject: {fileID: 0}
  m_PrefabInstance: {fileID: 0}
  m_PrefabAsset: {fileID: 0}
  m_Name: New Animation4
  serializedVersion: 6
  m_Legacy: 0
  m_Compressed: 0
  m_UseHighQualityCurve: 1
  m_RotationCurves: []
  m_CompressedRotationCurves: []
  m_EulerCurves: []
  m_PositionCurves:
  - curve:
      serializedVersion: 2
      m_Curve:
      - serializedVersion: 3
        time: 0
        value: {x: 51.61, y: -27.33, z: 0}
        inSlope: {x: 0, y: 0, z: 0}
        outSlope: {x: 0, y: 0, z: 0}
        tangentMode: 0
        weightedMode: 0
        inWeight: {x: 0.33333334, y: 0.33333334, z: 0.33333334}
        outWeight: {x: 0.33333334, y: 0.33333334, z: 0.33333334}
      - serializedVersion: 3
        time: 2
        value: {x: 47.5, y: -27.33, z: 0}
        inSlope: {x: 0, y: 0, z: 0}
        outSlope: {x: 0, y: 0, z: 0}
        tangentMode: 0
        weightedMode: 0
        inWeight: {x: 0.33333334, y: 0.33333334, z: 0.33333334}
        outWeight: {x: 0.33333334, y: 0.33333334, z: 0.33333334}
      - serializedVersion: 3
        time: 4
        value: {x: 51.56, y: -27.33, z: 0}
        inSlope: {x: 0, y: 0, z: 0}
        outSlope: {x: 0, y: 0, z: 0}
        tangentMode: 0
        weightedMode: 0
        inWeight: {x: 0.33333334, y: 0.33333334, z: 0.33333334}
        outWeight: {x: 0.33333334, y: 0.33333334, z: 0.33333334}
      m_PreInfinity: 2
      m_PostInfinity: 2
      m_RotationOrder: 4
    path: 
  m_ScaleCurves: []
  m_FloatCurves: []
  m_PPtrCurves:
  - curve:
    - time: 4
      value: {fileID: 21300000, guid: 0868bf4c36fa14dacbef0b4619f706e6, type: 3}
    - time: 2.6666667
      value: {fileID: 21300000, guid: 0868bf4c36fa14dacbef0b4619f706e6, type: 3}
    - time: 2.8333333
      value: {fileID: 21300000, guid: 4daa8d9424fb449af8be4f99d6688c8d, type: 3}
    - time: 3
      value: {fileID: 21300000, guid: b610a4c36c47d408183676f30f03d10d, type: 3}
    - time: 3.1666667
      value: {fileID: 21300000, guid: d51a80d9315ca4ee9872168f3eec4877, type: 3}
    - time: 3.3333333
      value: {fileID: 21300000, guid: a338231a359fb437e8b7793dd9c01504, type: 3}
    - time: 3.5
      value: {fileID: 21300000, guid: 8a0436343c7684990b718c9c08fcc084, type: 3}
    - time: 3.6666667
      value: {fileID: 21300000, guid: 32b705df7a1d4464e898d8b96d38c1cb, type: 3}
    - time: 3.8333333
      value: {fileID: 21300000, guid: 7d9c9cae814e7471688156a3807193d0, type: 3}
    - time: 1.3333334
      value: {fileID: 21300000, guid: 0868bf4c36fa14dacbef0b4619f706e6, type: 3}
    - time: 1.5
      value: {fileID: 21300000, guid: 4daa8d9424fb449af8be4f99d6688c8d, type: 3}
    - time: 1.6666666
      value: {fileID: 21300000, guid: b610a4c36c47d408183676f30f03d10d, type: 3}
    - time: 1.8333334
      value: {fileID: 21300000, guid: d51a80d9315ca4ee9872168f3eec4877, type: 3}
    - time: 2
      value: {fileID: 21300000, guid: a338231a359fb437e8b7793dd9c01504, type: 3}
    - time: 2.1666667
      value: {fileID: 21300000, guid: 8a0436343c7684990b718c9c08fcc084, type: 3}
    - time: 2.3333333
      value: {fileID: 21300000, guid: 32b705df7a1d4464e898d8b96d38c1cb, type: 3}
    - time: 2.5
      value: {fileID: 21300000, guid: 7d9c9cae814e7471688156a3807193d0, type: 3}
    - time: 0
      value: {fileID: 21300000, guid: 0868bf4c36fa14dacbef0b4619f706e6, type: 3}
    - time: 0.16666667
      value: {fileID: 21300000, guid: 4daa8d9424fb449af8be4f99d6688c8d, type: 3}
    - time: 0.33333334
      value: {fileID: 21300000, guid: b610a4c36c47d408183676f30f03d10d, type: 3}
    - time: 0.5
      value: {fileID: 21300000, guid: d51a80d9315ca4ee9872168f3eec4877, type: 3}
    - time: 0.6666667
      value: {fileID: 21300000, guid: a338231a359fb437e8b7793dd9c01504, type: 3}
    - time: 0.8333333
      value: {fileID: 21300000, guid: 8a0436343c7684990b718c9c08fcc084, type: 3}
    - time: 1
      value: {fileID: 21300000, guid: 32b705df7a1d4464e898d8b96d38c1cb, type: 3}
    - time: 1.1666666
      value: {fileID: 21300000, guid: 7d9c9cae814e7471688156a3807193d0, type: 3}
    attribute: m_Sprite
    path: 
    classID: 212
    script: {fileID: 0}
  m_SampleRate: 12
  m_WrapMode: 0
  m_Bounds:
    m_Center: {x: 0, y: 0, z: 0}
    m_Extent: {x: 0, y: 0, z: 0}
  m_ClipBindingConstant:
    genericBindings:
    - serializedVersion: 2
      path: 0
      attribute: 1
      script: {fileID: 0}
      typeID: 4
      customType: 0
      isPPtrCurve: 0
    - serializedVersion: 2
      path: 0
      attribute: 0
      script: {fileID: 0}
      typeID: 212
      customType: 23
      isPPtrCurve: 1
    pptrCurveMapping:
    - {fileID: 21300000, guid: 0868bf4c36fa14dacbef0b4619f706e6, type: 3}
    - {fileID: 21300000, guid: 0868bf4c36fa14dacbef0b4619f706e6, type: 3}
    - {fileID: 21300000, guid: 4daa8d9424fb449af8be4f99d6688c8d, type: 3}
    - {fileID: 21300000, guid: b610a4c36c47d408183676f30f03d10d, type: 3}
    - {fileID: 21300000, guid: d51a80d9315ca4ee9872168f3eec4877, type: 3}
    - {fileID: 21300000, guid: a338231a359fb437e8b7793dd9c01504, type: 3}
    - {fileID: 21300000, guid: 8a0436343c7684990b718c9c08fcc084, type: 3}
    - {fileID: 21300000, guid: 32b705df7a1d4464e898d8b96d38c1cb, type: 3}
    - {fileID: 21300000, guid: 7d9c9cae814e7471688156a3807193d0, type: 3}
    - {fileID: 21300000, guid: 0868bf4c36fa14dacbef0b4619f706e6, type: 3}
    - {fileID: 21300000, guid: 4daa8d9424fb449af8be4f99d6688c8d, type: 3}
    - {fileID: 21300000, guid: b610a4c36c47d408183676f30f03d10d, type: 3}
    - {fileID: 21300000, guid: d51a80d9315ca4ee9872168f3eec4877, type: 3}
    - {fileID: 21300000, guid: a338231a359fb437e8b7793dd9c01504, type: 3}
    - {fileID: 21300000, guid: 8a0436343c7684990b718c9c08fcc084, type: 3}
    - {fileID: 21300000, guid: 32b705df7a1d4464e898d8b96d38c1cb, type: 3}
    - {fileID: 21300000, guid: 7d9c9cae814e7471688156a3807193d0, type: 3}
    - {fileID: 21300000, guid: 0868bf4c36fa14dacbef0b4619f706e6, type: 3}
    - {fileID: 21300000, guid: 4daa8d9424fb449af8be4f99d6688c8d, type: 3}
    - {fileID: 21300000, guid: b610a4c36c47d408183676f30f03d10d, type: 3}
    - {fileID: 21300000, guid: d51a80d9315ca4ee9872168f3eec4877, type: 3}
    - {fileID: 21300000, guid: a338231a359fb437e8b7793dd9c01504, type: 3}
    - {fileID: 21300000, guid: 8a0436343c7684990b718c9c08fcc084, type: 3}
    - {fileID: 21300000, guid: 32b705df7a1d4464e898d8b96d38c1cb, type: 3}
    - {fileID: 21300000, guid: 7d9c9cae814e7471688156a3807193d0, type: 3}
  m_AnimationClipSettings:
    serializedVersion: 2
    m_AdditiveReferencePoseClip: {fileID: 0}
    m_AdditiveReferencePoseTime: 0
    m_StartTime: 0
    m_StopTime: 4
    m_OrientationOffsetY: 0
    m_Level: 0
    m_CycleOffset: 0
    m_HasAdditiveReferencePose: 0
    m_LoopTime: 1
    m_LoopBlend: 0
    m_LoopBlendOrientation: 0
    m_LoopBlendPositionY: 0
    m_LoopBlendPositionXZ: 0
    m_KeepOriginalOrientation: 0
    m_KeepOriginalPositionY: 1
    m_KeepOriginalPositionXZ: 0
    m_HeightFromFeet: 0
    m_Mirror: 0
  m_EditorCurves:
  - curve:
      serializedVersion: 2
      m_Curve:
      - serializedVersion: 3
        time: 0
        value: 51.61
        inSlope: 0
        outSlope: 0
        tangentMode: 136
        weightedMode: 0
        inWeight: 0.33333334
        outWeight: 0.33333334
      - serializedVersion: 3
        time: 2
        value: 47.5
        inSlope: 0
        outSlope: 0
        tangentMode: 136
        weightedMode: 0
        inWeight: 0.33333334
        outWeight: 0.33333334
      - serializedVersion: 3
        time: 4
        value: 51.56
        inSlope: 0
        outSlope: 0
        tangentMode: 136
        weightedMode: 0
        inWeight: 0.33333334
        outWeight: 0.33333334
      m_PreInfinity: 2
      m_PostInfinity: 2
      m_RotationOrder: 4
    attribute: m_LocalPosition.x
    path: 
    classID: 4
    script: {fileID: 0}
  - curve:
      serializedVersion: 2
      m_Curve:
      - serializedVersion: 3
        time: 0
        value: -27.33
        inSlope: 0
        outSlope: 0
        tangentMode: 136
        weightedMode: 0
        inWeight: 0.33333334
        outWeight: 0.33333334
      - serializedVersion: 3
        time: 2
        value: -27.33
        inSlope: 0
        outSlope: 0
        tangentMode: 136
        weightedMode: 0
        inWeight: 0.33333334
        outWeight: 0.33333334
      - serializedVersion: 3
        time: 4
        value: -27.33
        inSlope: 0
        outSlope: 0
        tangentMode: 136
        weightedMode: 0
        inWeight: 0.33333334
        outWeight: 0.33333334
      m_PreInfinity: 2
      m_PostInfinity: 2
      m_RotationOrder: 4
    attribute: m_LocalPosition.y
    path: 
    classID: 4
    script: {fileID: 0}
  - curve:
      serializedVersion: 2
      m_Curve:
      - serializedVersion: 3
        time: 0
        value: 0
        inSlope: 0
        outSlope: 0
        tangentMode: 136
        weightedMode: 0
        inWeight: 0.33333334
        outWeight: 0.33333334
      - serializedVersion: 3
        time: 2
        value: 0
        inSlope: 0
        outSlope: 0
        tangentMode: 136
        weightedMode: 0
        inWeight: 0.33333334
        outWeight: 0.33333334
      - serializedVersion: 3
        time: 4
        value: 0
        inSlope: 0
        outSlope: 0
        tangentMode: 136
        weightedMode: 0
        inWeight: 0.33333334
        outWeight: 0.33333334
      m_PreInfinity: 2
      m_PostInfinity: 2
      m_RotationOrder: 4
    attribute: m_LocalPosition.z
    path: 
    classID: 4
    script: {fileID: 0}
  m_EulerEditorCurves: []
  m_HasGenericRootTransform: 1
  m_HasMotionFloatCurves: 0
  m_Events: []
