%YAML 1.1
%TAG !u! tag:unity3d.com,2011:
--- !u!74 &7400000
AnimationClip:
  m_ObjectHideFlags: 0
  m_CorrespondingSourceObject: {fileID: 0}
  m_PrefabInstance: {fileID: 0}
  m_PrefabAsset: {fileID: 0}
  m_Name: New Animation
  serializedVersion: 6
  m_Legacy: 0
  m_Compressed: 0
  m_UseHighQualityCurve: 1
  m_RotationCurves: []
  m_CompressedRotationCurves: []
  m_EulerCurves: []
  m_PositionCurves:
  - curve:
      serializedVersion: 2
      m_Curve:
      - serializedVersion: 3
        time: 0
        value: {x: 42.27, y: -2.88, z: 0}
        inSlope: {x: 0, y: 0, z: 0}
        outSlope: {x: 0, y: 0, z: 0}
        tangentMode: 0
        weightedMode: 0
        inWeight: {x: 0.33333334, y: 0.33333334, z: 0.33333334}
        outWeight: {x: 0.33333334, y: 0.33333334, z: 0.33333334}
      - serializedVersion: 3
        time: 2
        value: {x: 44.01, y: -2.88, z: 0}
        inSlope: {x: 0.9324999, y: 0, z: 0}
        outSlope: {x: 0.9324999, y: 0, z: 0}
        tangentMode: 0
        weightedMode: 0
        inWeight: {x: 0.33333334, y: 0.33333334, z: 0.33333334}
        outWeight: {x: 0.33333334, y: 0.33333334, z: 0.33333334}
      - serializedVersion: 3
        time: 4
        value: {x: 46, y: -2.88, z: 0}
        inSlope: {x: 0.9933345, y: 0, z: 0}
        outSlope: {x: 0.9933345, y: 0, z: 0}
        tangentMode: 0
        weightedMode: 0
        inWeight: {x: 0.33333334, y: 0.33333334, z: 0.33333334}
        outWeight: {x: 0.33333334, y: 0.33333334, z: 0.33333334}
      - serializedVersion: 3
        time: 5
        value: {x: 46.99, y: -2.88, z: 0}
        inSlope: {x: 0, y: 0, z: 0}
        outSlope: {x: 0, y: 0, z: 0}
        tangentMode: 0
        weightedMode: 0
        inWeight: {x: 0.33333334, y: 0.33333334, z: 0.33333334}
        outWeight: {x: 0.33333334, y: 0.33333334, z: 0.33333334}
      - serializedVersion: 3
        time: 6
        value: {x: 45.97, y: -2.88, z: 0}
        inSlope: {x: -1.003334, y: 0, z: 0}
        outSlope: {x: -1.003334, y: 0, z: 0}
        tangentMode: 0
        weightedMode: 0
        inWeight: {x: 0.33333334, y: 0.33333334, z: 0.33333334}
        outWeight: {x: 0.33333334, y: 0.33333334, z: 0.33333334}
      - serializedVersion: 3
        time: 8
        value: {x: 43.98, y: -2.88, z: 0}
        inSlope: {x: -0.9275007, y: 0, z: 0}
        outSlope: {x: -0.9275007, y: 0, z: 0}
        tangentMode: 0
        weightedMode: 0
        inWeight: {x: 0.33333334, y: 0.33333334, z: 0.33333334}
        outWeight: {x: 0.33333334, y: 0.33333334, z: 0.33333334}
      - serializedVersion: 3
        time: 10
        value: {x: 42.26, y: -2.88, z: 0}
        inSlope: {x: 0, y: 0, z: 0}
        outSlope: {x: 0, y: 0, z: 0}
        tangentMode: 0
        weightedMode: 0
        inWeight: {x: 0.33333334, y: 0.33333334, z: 0.33333334}
        outWeight: {x: 0.33333334, y: 0.33333334, z: 0.33333334}
      m_PreInfinity: 2
      m_PostInfinity: 2
      m_RotationOrder: 4
    path: 
  m_ScaleCurves: []
  m_FloatCurves: []
  m_PPtrCurves:
  - curve:
    - time: 0
      value: {fileID: 21300000, guid: 066c4a730a3694a4992b8850e5a07fc9, type: 3}
    - time: 0.083333336
      value: {fileID: 21300000, guid: e914a64d63d9c494dbfd847935a0c9ca, type: 3}
    - time: 0.16666667
      value: {fileID: 21300000, guid: abadf7bfafcb542db96e8215eccd3902, type: 3}
    - time: 0.25
      value: {fileID: 21300000, guid: fb3457b7f12784b65bf5dd96d9df4555, type: 3}
    - time: 0.33333334
      value: {fileID: 21300000, guid: 066c4a730a3694a4992b8850e5a07fc9, type: 3}
    - time: 0.41666666
      value: {fileID: 21300000, guid: e914a64d63d9c494dbfd847935a0c9ca, type: 3}
    - time: 0.5
      value: {fileID: 21300000, guid: abadf7bfafcb542db96e8215eccd3902, type: 3}
    - time: 0.5833333
      value: {fileID: 21300000, guid: fb3457b7f12784b65bf5dd96d9df4555, type: 3}
    - time: 0.6666667
      value: {fileID: 21300000, guid: 066c4a730a3694a4992b8850e5a07fc9, type: 3}
    - time: 0.75
      value: {fileID: 21300000, guid: e914a64d63d9c494dbfd847935a0c9ca, type: 3}
    - time: 0.8333333
      value: {fileID: 21300000, guid: abadf7bfafcb542db96e8215eccd3902, type: 3}
    - time: 2.25
      value: {fileID: 21300000, guid: 066c4a730a3694a4992b8850e5a07fc9, type: 3}
    - time: 2.3333333
      value: {fileID: 21300000, guid: e914a64d63d9c494dbfd847935a0c9ca, type: 3}
    - time: 2.4166667
      value: {fileID: 21300000, guid: abadf7bfafcb542db96e8215eccd3902, type: 3}
    - time: 2.5
      value: {fileID: 21300000, guid: fb3457b7f12784b65bf5dd96d9df4555, type: 3}
    - time: 2.5833333
      value: {fileID: 21300000, guid: 066c4a730a3694a4992b8850e5a07fc9, type: 3}
    - time: 0.9166667
      value: {fileID: 21300000, guid: abadf7bfafcb542db96e8215eccd3902, type: 3}
    - time: 1.8333334
      value: {fileID: 21300000, guid: fb3457b7f12784b65bf5dd96d9df4555, type: 3}
    - time: 1.9166666
      value: {fileID: 21300000, guid: 066c4a730a3694a4992b8850e5a07fc9, type: 3}
    - time: 2
      value: {fileID: 21300000, guid: e914a64d63d9c494dbfd847935a0c9ca, type: 3}
    - time: 2.0833333
      value: {fileID: 21300000, guid: abadf7bfafcb542db96e8215eccd3902, type: 3}
    - time: 2.1666667
      value: {fileID: 21300000, guid: fb3457b7f12784b65bf5dd96d9df4555, type: 3}
    - time: 1
      value: {fileID: 21300000, guid: abadf7bfafcb542db96e8215eccd3902, type: 3}
    - time: 1.0833334
      value: {fileID: 21300000, guid: fb3457b7f12784b65bf5dd96d9df4555, type: 3}
    - time: 1.1666666
      value: {fileID: 21300000, guid: 066c4a730a3694a4992b8850e5a07fc9, type: 3}
    - time: 1.25
      value: {fileID: 21300000, guid: e914a64d63d9c494dbfd847935a0c9ca, type: 3}
    - time: 1.3333334
      value: {fileID: 21300000, guid: abadf7bfafcb542db96e8215eccd3902, type: 3}
    - time: 1.4166666
      value: {fileID: 21300000, guid: fb3457b7f12784b65bf5dd96d9df4555, type: 3}
    - time: 1.5
      value: {fileID: 21300000, guid: 066c4a730a3694a4992b8850e5a07fc9, type: 3}
    - time: 1.5833334
      value: {fileID: 21300000, guid: e914a64d63d9c494dbfd847935a0c9ca, type: 3}
    - time: 1.6666666
      value: {fileID: 21300000, guid: abadf7bfafcb542db96e8215eccd3902, type: 3}
    - time: 1.75
      value: {fileID: 21300000, guid: fb3457b7f12784b65bf5dd96d9df4555, type: 3}
    - time: 2.6666667
      value: {fileID: 21300000, guid: abadf7bfafcb542db96e8215eccd3902, type: 3}
    - time: 3.5833333
      value: {fileID: 21300000, guid: fb3457b7f12784b65bf5dd96d9df4555, type: 3}
    - time: 3.6666667
      value: {fileID: 21300000, guid: 066c4a730a3694a4992b8850e5a07fc9, type: 3}
    - time: 3.75
      value: {fileID: 21300000, guid: e914a64d63d9c494dbfd847935a0c9ca, type: 3}
    - time: 2.75
      value: {fileID: 21300000, guid: abadf7bfafcb542db96e8215eccd3902, type: 3}
    - time: 2.8333333
      value: {fileID: 21300000, guid: fb3457b7f12784b65bf5dd96d9df4555, type: 3}
    - time: 2.9166667
      value: {fileID: 21300000, guid: 066c4a730a3694a4992b8850e5a07fc9, type: 3}
    - time: 3
      value: {fileID: 21300000, guid: e914a64d63d9c494dbfd847935a0c9ca, type: 3}
    - time: 3.0833333
      value: {fileID: 21300000, guid: abadf7bfafcb542db96e8215eccd3902, type: 3}
    - time: 3.1666667
      value: {fileID: 21300000, guid: fb3457b7f12784b65bf5dd96d9df4555, type: 3}
    - time: 3.25
      value: {fileID: 21300000, guid: 066c4a730a3694a4992b8850e5a07fc9, type: 3}
    - time: 3.3333333
      value: {fileID: 21300000, guid: e914a64d63d9c494dbfd847935a0c9ca, type: 3}
    - time: 3.4166667
      value: {fileID: 21300000, guid: abadf7bfafcb542db96e8215eccd3902, type: 3}
    - time: 3.5
      value: {fileID: 21300000, guid: fb3457b7f12784b65bf5dd96d9df4555, type: 3}
    - time: 3.8333333
      value: {fileID: 21300000, guid: abadf7bfafcb542db96e8215eccd3902, type: 3}
    - time: 3.9166667
      value: {fileID: 21300000, guid: abadf7bfafcb542db96e8215eccd3902, type: 3}
    - time: 4
      value: {fileID: 21300000, guid: fb3457b7f12784b65bf5dd96d9df4555, type: 3}
    - time: 4.0833335
      value: {fileID: 21300000, guid: 066c4a730a3694a4992b8850e5a07fc9, type: 3}
    - time: 4.1666665
      value: {fileID: 21300000, guid: e914a64d63d9c494dbfd847935a0c9ca, type: 3}
    - time: 4.25
      value: {fileID: 21300000, guid: abadf7bfafcb542db96e8215eccd3902, type: 3}
    - time: 4.3333335
      value: {fileID: 21300000, guid: fb3457b7f12784b65bf5dd96d9df4555, type: 3}
    - time: 4.4166665
      value: {fileID: 21300000, guid: 066c4a730a3694a4992b8850e5a07fc9, type: 3}
    - time: 4.5
      value: {fileID: 21300000, guid: e914a64d63d9c494dbfd847935a0c9ca, type: 3}
    - time: 4.5833335
      value: {fileID: 21300000, guid: abadf7bfafcb542db96e8215eccd3902, type: 3}
    - time: 4.6666665
      value: {fileID: 21300000, guid: abadf7bfafcb542db96e8215eccd3902, type: 3}
    - time: 4.75
      value: {fileID: 21300000, guid: abadf7bfafcb542db96e8215eccd3902, type: 3}
    - time: 4.8333335
      value: {fileID: 21300000, guid: fb3457b7f12784b65bf5dd96d9df4555, type: 3}
    - time: 4.9166665
      value: {fileID: 21300000, guid: 066c4a730a3694a4992b8850e5a07fc9, type: 3}
    - time: 5
      value: {fileID: 21300000, guid: e914a64d63d9c494dbfd847935a0c9ca, type: 3}
    - time: 5.0833335
      value: {fileID: 21300000, guid: abadf7bfafcb542db96e8215eccd3902, type: 3}
    - time: 5.1666665
      value: {fileID: 21300000, guid: fb3457b7f12784b65bf5dd96d9df4555, type: 3}
    - time: 5.25
      value: {fileID: 21300000, guid: 066c4a730a3694a4992b8850e5a07fc9, type: 3}
    - time: 5.3333335
      value: {fileID: 21300000, guid: e914a64d63d9c494dbfd847935a0c9ca, type: 3}
    - time: 5.4166665
      value: {fileID: 21300000, guid: abadf7bfafcb542db96e8215eccd3902, type: 3}
    - time: 5.5
      value: {fileID: 21300000, guid: fb3457b7f12784b65bf5dd96d9df4555, type: 3}
    - time: 5.5833335
      value: {fileID: 21300000, guid: abadf7bfafcb542db96e8215eccd3902, type: 3}
    - time: 5.6666665
      value: {fileID: 21300000, guid: abadf7bfafcb542db96e8215eccd3902, type: 3}
    - time: 5.75
      value: {fileID: 21300000, guid: fb3457b7f12784b65bf5dd96d9df4555, type: 3}
    - time: 5.8333335
      value: {fileID: 21300000, guid: 066c4a730a3694a4992b8850e5a07fc9, type: 3}
    - time: 5.9166665
      value: {fileID: 21300000, guid: e914a64d63d9c494dbfd847935a0c9ca, type: 3}
    - time: 6
      value: {fileID: 21300000, guid: abadf7bfafcb542db96e8215eccd3902, type: 3}
    - time: 6.0833335
      value: {fileID: 21300000, guid: fb3457b7f12784b65bf5dd96d9df4555, type: 3}
    - time: 6.1666665
      value: {fileID: 21300000, guid: 066c4a730a3694a4992b8850e5a07fc9, type: 3}
    - time: 6.25
      value: {fileID: 21300000, guid: e914a64d63d9c494dbfd847935a0c9ca, type: 3}
    - time: 6.3333335
      value: {fileID: 21300000, guid: abadf7bfafcb542db96e8215eccd3902, type: 3}
    - time: 6.4166665
      value: {fileID: 21300000, guid: fb3457b7f12784b65bf5dd96d9df4555, type: 3}
    - time: 6.5
      value: {fileID: 21300000, guid: abadf7bfafcb542db96e8215eccd3902, type: 3}
    - time: 7.4166665
      value: {fileID: 21300000, guid: fb3457b7f12784b65bf5dd96d9df4555, type: 3}
    - time: 7.5
      value: {fileID: 21300000, guid: 066c4a730a3694a4992b8850e5a07fc9, type: 3}
    - time: 7.5833335
      value: {fileID: 21300000, guid: e914a64d63d9c494dbfd847935a0c9ca, type: 3}
    - time: 7.6666665
      value: {fileID: 21300000, guid: abadf7bfafcb542db96e8215eccd3902, type: 3}
    - time: 7.75
      value: {fileID: 21300000, guid: fb3457b7f12784b65bf5dd96d9df4555, type: 3}
    - time: 6.5833335
      value: {fileID: 21300000, guid: abadf7bfafcb542db96e8215eccd3902, type: 3}
    - time: 6.6666665
      value: {fileID: 21300000, guid: fb3457b7f12784b65bf5dd96d9df4555, type: 3}
    - time: 6.75
      value: {fileID: 21300000, guid: 066c4a730a3694a4992b8850e5a07fc9, type: 3}
    - time: 6.8333335
      value: {fileID: 21300000, guid: e914a64d63d9c494dbfd847935a0c9ca, type: 3}
    - time: 6.9166665
      value: {fileID: 21300000, guid: abadf7bfafcb542db96e8215eccd3902, type: 3}
    - time: 7
      value: {fileID: 21300000, guid: fb3457b7f12784b65bf5dd96d9df4555, type: 3}
    - time: 7.0833335
      value: {fileID: 21300000, guid: 066c4a730a3694a4992b8850e5a07fc9, type: 3}
    - time: 7.1666665
      value: {fileID: 21300000, guid: e914a64d63d9c494dbfd847935a0c9ca, type: 3}
    - time: 7.25
      value: {fileID: 21300000, guid: abadf7bfafcb542db96e8215eccd3902, type: 3}
    - time: 7.3333335
      value: {fileID: 21300000, guid: fb3457b7f12784b65bf5dd96d9df4555, type: 3}
    - time: 7.8333335
      value: {fileID: 21300000, guid: abadf7bfafcb542db96e8215eccd3902, type: 3}
    - time: 7.9166665
      value: {fileID: 21300000, guid: abadf7bfafcb542db96e8215eccd3902, type: 3}
    - time: 8
      value: {fileID: 21300000, guid: fb3457b7f12784b65bf5dd96d9df4555, type: 3}
    - time: 8.083333
      value: {fileID: 21300000, guid: abadf7bfafcb542db96e8215eccd3902, type: 3}
    - time: 9
      value: {fileID: 21300000, guid: fb3457b7f12784b65bf5dd96d9df4555, type: 3}
    - time: 8.166667
      value: {fileID: 21300000, guid: abadf7bfafcb542db96e8215eccd3902, type: 3}
    - time: 8.25
      value: {fileID: 21300000, guid: fb3457b7f12784b65bf5dd96d9df4555, type: 3}
    - time: 8.333333
      value: {fileID: 21300000, guid: 066c4a730a3694a4992b8850e5a07fc9, type: 3}
    - time: 8.416667
      value: {fileID: 21300000, guid: e914a64d63d9c494dbfd847935a0c9ca, type: 3}
    - time: 8.5
      value: {fileID: 21300000, guid: abadf7bfafcb542db96e8215eccd3902, type: 3}
    - time: 8.583333
      value: {fileID: 21300000, guid: fb3457b7f12784b65bf5dd96d9df4555, type: 3}
    - time: 8.666667
      value: {fileID: 21300000, guid: 066c4a730a3694a4992b8850e5a07fc9, type: 3}
    - time: 8.75
      value: {fileID: 21300000, guid: e914a64d63d9c494dbfd847935a0c9ca, type: 3}
    - time: 8.833333
      value: {fileID: 21300000, guid: abadf7bfafcb542db96e8215eccd3902, type: 3}
    - time: 8.916667
      value: {fileID: 21300000, guid: fb3457b7f12784b65bf5dd96d9df4555, type: 3}
    - time: 9.083333
      value: {fileID: 21300000, guid: abadf7bfafcb542db96e8215eccd3902, type: 3}
    - time: 10
      value: {fileID: 21300000, guid: fb3457b7f12784b65bf5dd96d9df4555, type: 3}
    - time: 10.083333
      value: {fileID: 21300000, guid: 066c4a730a3694a4992b8850e5a07fc9, type: 3}
    - time: 10.166667
      value: {fileID: 21300000, guid: e914a64d63d9c494dbfd847935a0c9ca, type: 3}
    - time: 10.25
      value: {fileID: 21300000, guid: abadf7bfafcb542db96e8215eccd3902, type: 3}
    - time: 10.333333
      value: {fileID: 21300000, guid: fb3457b7f12784b65bf5dd96d9df4555, type: 3}
    - time: 9.166667
      value: {fileID: 21300000, guid: abadf7bfafcb542db96e8215eccd3902, type: 3}
    - time: 9.25
      value: {fileID: 21300000, guid: fb3457b7f12784b65bf5dd96d9df4555, type: 3}
    - time: 9.333333
      value: {fileID: 21300000, guid: 066c4a730a3694a4992b8850e5a07fc9, type: 3}
    - time: 9.416667
      value: {fileID: 21300000, guid: e914a64d63d9c494dbfd847935a0c9ca, type: 3}
    - time: 9.5
      value: {fileID: 21300000, guid: abadf7bfafcb542db96e8215eccd3902, type: 3}
    - time: 9.583333
      value: {fileID: 21300000, guid: fb3457b7f12784b65bf5dd96d9df4555, type: 3}
    - time: 9.666667
      value: {fileID: 21300000, guid: 066c4a730a3694a4992b8850e5a07fc9, type: 3}
    - time: 9.75
      value: {fileID: 21300000, guid: e914a64d63d9c494dbfd847935a0c9ca, type: 3}
    - time: 9.833333
      value: {fileID: 21300000, guid: abadf7bfafcb542db96e8215eccd3902, type: 3}
    - time: 9.916667
      value: {fileID: 21300000, guid: fb3457b7f12784b65bf5dd96d9df4555, type: 3}
    attribute: m_Sprite
    path: 
    classID: 212
    script: {fileID: 0}
  m_SampleRate: 12
  m_WrapMode: 0
  m_Bounds:
    m_Center: {x: 0, y: 0, z: 0}
    m_Extent: {x: 0, y: 0, z: 0}
  m_ClipBindingConstant:
    genericBindings:
    - serializedVersion: 2
      path: 0
      attribute: 1
      script: {fileID: 0}
      typeID: 4
      customType: 0
      isPPtrCurve: 0
    - serializedVersion: 2
      path: 0
      attribute: 0
      script: {fileID: 0}
      typeID: 212
      customType: 23
      isPPtrCurve: 1
    pptrCurveMapping:
    - {fileID: 21300000, guid: 066c4a730a3694a4992b8850e5a07fc9, type: 3}
    - {fileID: 21300000, guid: e914a64d63d9c494dbfd847935a0c9ca, type: 3}
    - {fileID: 21300000, guid: abadf7bfafcb542db96e8215eccd3902, type: 3}
    - {fileID: 21300000, guid: fb3457b7f12784b65bf5dd96d9df4555, type: 3}
    - {fileID: 21300000, guid: 066c4a730a3694a4992b8850e5a07fc9, type: 3}
    - {fileID: 21300000, guid: e914a64d63d9c494dbfd847935a0c9ca, type: 3}
    - {fileID: 21300000, guid: abadf7bfafcb542db96e8215eccd3902, type: 3}
    - {fileID: 21300000, guid: fb3457b7f12784b65bf5dd96d9df4555, type: 3}
    - {fileID: 21300000, guid: 066c4a730a3694a4992b8850e5a07fc9, type: 3}
    - {fileID: 21300000, guid: e914a64d63d9c494dbfd847935a0c9ca, type: 3}
    - {fileID: 21300000, guid: abadf7bfafcb542db96e8215eccd3902, type: 3}
    - {fileID: 21300000, guid: 066c4a730a3694a4992b8850e5a07fc9, type: 3}
    - {fileID: 21300000, guid: e914a64d63d9c494dbfd847935a0c9ca, type: 3}
    - {fileID: 21300000, guid: abadf7bfafcb542db96e8215eccd3902, type: 3}
    - {fileID: 21300000, guid: fb3457b7f12784b65bf5dd96d9df4555, type: 3}
    - {fileID: 21300000, guid: 066c4a730a3694a4992b8850e5a07fc9, type: 3}
    - {fileID: 21300000, guid: abadf7bfafcb542db96e8215eccd3902, type: 3}
    - {fileID: 21300000, guid: fb3457b7f12784b65bf5dd96d9df4555, type: 3}
    - {fileID: 21300000, guid: 066c4a730a3694a4992b8850e5a07fc9, type: 3}
    - {fileID: 21300000, guid: e914a64d63d9c494dbfd847935a0c9ca, type: 3}
    - {fileID: 21300000, guid: abadf7bfafcb542db96e8215eccd3902, type: 3}
    - {fileID: 21300000, guid: fb3457b7f12784b65bf5dd96d9df4555, type: 3}
    - {fileID: 21300000, guid: abadf7bfafcb542db96e8215eccd3902, type: 3}
    - {fileID: 21300000, guid: fb3457b7f12784b65bf5dd96d9df4555, type: 3}
    - {fileID: 21300000, guid: 066c4a730a3694a4992b8850e5a07fc9, type: 3}
    - {fileID: 21300000, guid: e914a64d63d9c494dbfd847935a0c9ca, type: 3}
    - {fileID: 21300000, guid: abadf7bfafcb542db96e8215eccd3902, type: 3}
    - {fileID: 21300000, guid: fb3457b7f12784b65bf5dd96d9df4555, type: 3}
    - {fileID: 21300000, guid: 066c4a730a3694a4992b8850e5a07fc9, type: 3}
    - {fileID: 21300000, guid: e914a64d63d9c494dbfd847935a0c9ca, type: 3}
    - {fileID: 21300000, guid: abadf7bfafcb542db96e8215eccd3902, type: 3}
    - {fileID: 21300000, guid: fb3457b7f12784b65bf5dd96d9df4555, type: 3}
    - {fileID: 21300000, guid: abadf7bfafcb542db96e8215eccd3902, type: 3}
    - {fileID: 21300000, guid: fb3457b7f12784b65bf5dd96d9df4555, type: 3}
    - {fileID: 21300000, guid: 066c4a730a3694a4992b8850e5a07fc9, type: 3}
    - {fileID: 21300000, guid: e914a64d63d9c494dbfd847935a0c9ca, type: 3}
    - {fileID: 21300000, guid: abadf7bfafcb542db96e8215eccd3902, type: 3}
    - {fileID: 21300000, guid: fb3457b7f12784b65bf5dd96d9df4555, type: 3}
    - {fileID: 21300000, guid: 066c4a730a3694a4992b8850e5a07fc9, type: 3}
    - {fileID: 21300000, guid: e914a64d63d9c494dbfd847935a0c9ca, type: 3}
    - {fileID: 21300000, guid: abadf7bfafcb542db96e8215eccd3902, type: 3}
    - {fileID: 21300000, guid: fb3457b7f12784b65bf5dd96d9df4555, type: 3}
    - {fileID: 21300000, guid: 066c4a730a3694a4992b8850e5a07fc9, type: 3}
    - {fileID: 21300000, guid: e914a64d63d9c494dbfd847935a0c9ca, type: 3}
    - {fileID: 21300000, guid: abadf7bfafcb542db96e8215eccd3902, type: 3}
    - {fileID: 21300000, guid: fb3457b7f12784b65bf5dd96d9df4555, type: 3}
    - {fileID: 21300000, guid: abadf7bfafcb542db96e8215eccd3902, type: 3}
    - {fileID: 21300000, guid: abadf7bfafcb542db96e8215eccd3902, type: 3}
    - {fileID: 21300000, guid: fb3457b7f12784b65bf5dd96d9df4555, type: 3}
    - {fileID: 21300000, guid: 066c4a730a3694a4992b8850e5a07fc9, type: 3}
    - {fileID: 21300000, guid: e914a64d63d9c494dbfd847935a0c9ca, type: 3}
    - {fileID: 21300000, guid: abadf7bfafcb542db96e8215eccd3902, type: 3}
    - {fileID: 21300000, guid: fb3457b7f12784b65bf5dd96d9df4555, type: 3}
    - {fileID: 21300000, guid: 066c4a730a3694a4992b8850e5a07fc9, type: 3}
    - {fileID: 21300000, guid: e914a64d63d9c494dbfd847935a0c9ca, type: 3}
    - {fileID: 21300000, guid: abadf7bfafcb542db96e8215eccd3902, type: 3}
    - {fileID: 21300000, guid: abadf7bfafcb542db96e8215eccd3902, type: 3}
    - {fileID: 21300000, guid: abadf7bfafcb542db96e8215eccd3902, type: 3}
    - {fileID: 21300000, guid: fb3457b7f12784b65bf5dd96d9df4555, type: 3}
    - {fileID: 21300000, guid: 066c4a730a3694a4992b8850e5a07fc9, type: 3}
    - {fileID: 21300000, guid: e914a64d63d9c494dbfd847935a0c9ca, type: 3}
    - {fileID: 21300000, guid: abadf7bfafcb542db96e8215eccd3902, type: 3}
    - {fileID: 21300000, guid: fb3457b7f12784b65bf5dd96d9df4555, type: 3}
    - {fileID: 21300000, guid: 066c4a730a3694a4992b8850e5a07fc9, type: 3}
    - {fileID: 21300000, guid: e914a64d63d9c494dbfd847935a0c9ca, type: 3}
    - {fileID: 21300000, guid: abadf7bfafcb542db96e8215eccd3902, type: 3}
    - {fileID: 21300000, guid: fb3457b7f12784b65bf5dd96d9df4555, type: 3}
    - {fileID: 21300000, guid: abadf7bfafcb542db96e8215eccd3902, type: 3}
    - {fileID: 21300000, guid: abadf7bfafcb542db96e8215eccd3902, type: 3}
    - {fileID: 21300000, guid: fb3457b7f12784b65bf5dd96d9df4555, type: 3}
    - {fileID: 21300000, guid: 066c4a730a3694a4992b8850e5a07fc9, type: 3}
    - {fileID: 21300000, guid: e914a64d63d9c494dbfd847935a0c9ca, type: 3}
    - {fileID: 21300000, guid: abadf7bfafcb542db96e8215eccd3902, type: 3}
    - {fileID: 21300000, guid: fb3457b7f12784b65bf5dd96d9df4555, type: 3}
    - {fileID: 21300000, guid: 066c4a730a3694a4992b8850e5a07fc9, type: 3}
    - {fileID: 21300000, guid: e914a64d63d9c494dbfd847935a0c9ca, type: 3}
    - {fileID: 21300000, guid: abadf7bfafcb542db96e8215eccd3902, type: 3}
    - {fileID: 21300000, guid: fb3457b7f12784b65bf5dd96d9df4555, type: 3}
    - {fileID: 21300000, guid: abadf7bfafcb542db96e8215eccd3902, type: 3}
    - {fileID: 21300000, guid: fb3457b7f12784b65bf5dd96d9df4555, type: 3}
    - {fileID: 21300000, guid: 066c4a730a3694a4992b8850e5a07fc9, type: 3}
    - {fileID: 21300000, guid: e914a64d63d9c494dbfd847935a0c9ca, type: 3}
    - {fileID: 21300000, guid: abadf7bfafcb542db96e8215eccd3902, type: 3}
    - {fileID: 21300000, guid: fb3457b7f12784b65bf5dd96d9df4555, type: 3}
    - {fileID: 21300000, guid: abadf7bfafcb542db96e8215eccd3902, type: 3}
    - {fileID: 21300000, guid: fb3457b7f12784b65bf5dd96d9df4555, type: 3}
    - {fileID: 21300000, guid: 066c4a730a3694a4992b8850e5a07fc9, type: 3}
    - {fileID: 21300000, guid: e914a64d63d9c494dbfd847935a0c9ca, type: 3}
    - {fileID: 21300000, guid: abadf7bfafcb542db96e8215eccd3902, type: 3}
    - {fileID: 21300000, guid: fb3457b7f12784b65bf5dd96d9df4555, type: 3}
    - {fileID: 21300000, guid: 066c4a730a3694a4992b8850e5a07fc9, type: 3}
    - {fileID: 21300000, guid: e914a64d63d9c494dbfd847935a0c9ca, type: 3}
    - {fileID: 21300000, guid: abadf7bfafcb542db96e8215eccd3902, type: 3}
    - {fileID: 21300000, guid: fb3457b7f12784b65bf5dd96d9df4555, type: 3}
    - {fileID: 21300000, guid: abadf7bfafcb542db96e8215eccd3902, type: 3}
    - {fileID: 21300000, guid: abadf7bfafcb542db96e8215eccd3902, type: 3}
    - {fileID: 21300000, guid: fb3457b7f12784b65bf5dd96d9df4555, type: 3}
    - {fileID: 21300000, guid: abadf7bfafcb542db96e8215eccd3902, type: 3}
    - {fileID: 21300000, guid: fb3457b7f12784b65bf5dd96d9df4555, type: 3}
    - {fileID: 21300000, guid: abadf7bfafcb542db96e8215eccd3902, type: 3}
    - {fileID: 21300000, guid: fb3457b7f12784b65bf5dd96d9df4555, type: 3}
    - {fileID: 21300000, guid: 066c4a730a3694a4992b8850e5a07fc9, type: 3}
    - {fileID: 21300000, guid: e914a64d63d9c494dbfd847935a0c9ca, type: 3}
    - {fileID: 21300000, guid: abadf7bfafcb542db96e8215eccd3902, type: 3}
    - {fileID: 21300000, guid: fb3457b7f12784b65bf5dd96d9df4555, type: 3}
    - {fileID: 21300000, guid: 066c4a730a3694a4992b8850e5a07fc9, type: 3}
    - {fileID: 21300000, guid: e914a64d63d9c494dbfd847935a0c9ca, type: 3}
    - {fileID: 21300000, guid: abadf7bfafcb542db96e8215eccd3902, type: 3}
    - {fileID: 21300000, guid: fb3457b7f12784b65bf5dd96d9df4555, type: 3}
    - {fileID: 21300000, guid: abadf7bfafcb542db96e8215eccd3902, type: 3}
    - {fileID: 21300000, guid: fb3457b7f12784b65bf5dd96d9df4555, type: 3}
    - {fileID: 21300000, guid: 066c4a730a3694a4992b8850e5a07fc9, type: 3}
    - {fileID: 21300000, guid: e914a64d63d9c494dbfd847935a0c9ca, type: 3}
    - {fileID: 21300000, guid: abadf7bfafcb542db96e8215eccd3902, type: 3}
    - {fileID: 21300000, guid: fb3457b7f12784b65bf5dd96d9df4555, type: 3}
    - {fileID: 21300000, guid: abadf7bfafcb542db96e8215eccd3902, type: 3}
    - {fileID: 21300000, guid: fb3457b7f12784b65bf5dd96d9df4555, type: 3}
    - {fileID: 21300000, guid: 066c4a730a3694a4992b8850e5a07fc9, type: 3}
    - {fileID: 21300000, guid: e914a64d63d9c494dbfd847935a0c9ca, type: 3}
    - {fileID: 21300000, guid: abadf7bfafcb542db96e8215eccd3902, type: 3}
    - {fileID: 21300000, guid: fb3457b7f12784b65bf5dd96d9df4555, type: 3}
    - {fileID: 21300000, guid: 066c4a730a3694a4992b8850e5a07fc9, type: 3}
    - {fileID: 21300000, guid: e914a64d63d9c494dbfd847935a0c9ca, type: 3}
    - {fileID: 21300000, guid: abadf7bfafcb542db96e8215eccd3902, type: 3}
    - {fileID: 21300000, guid: fb3457b7f12784b65bf5dd96d9df4555, type: 3}
  m_AnimationClipSettings:
    serializedVersion: 2
    m_AdditiveReferencePoseClip: {fileID: 0}
    m_AdditiveReferencePoseTime: 0
    m_StartTime: 0
    m_StopTime: 10
    m_OrientationOffsetY: 0
    m_Level: 0
    m_CycleOffset: 0
    m_HasAdditiveReferencePose: 0
    m_LoopTime: 1
    m_LoopBlend: 0
    m_LoopBlendOrientation: 0
    m_LoopBlendPositionY: 0
    m_LoopBlendPositionXZ: 0
    m_KeepOriginalOrientation: 0
    m_KeepOriginalPositionY: 1
    m_KeepOriginalPositionXZ: 0
    m_HeightFromFeet: 0
    m_Mirror: 0
  m_EditorCurves:
  - curve:
      serializedVersion: 2
      m_Curve:
      - serializedVersion: 3
        time: 0
        value: 42.27
        inSlope: 0
        outSlope: 0
        tangentMode: 136
        weightedMode: 0
        inWeight: 0.33333334
        outWeight: 0.33333334
      - serializedVersion: 3
        time: 2
        value: 44.01
        inSlope: 0.9324999
        outSlope: 0.9324999
        tangentMode: 136
        weightedMode: 0
        inWeight: 0.33333334
        outWeight: 0.33333334
      - serializedVersion: 3
        time: 4
        value: 46
        inSlope: 0.9933345
        outSlope: 0.9933345
        tangentMode: 136
        weightedMode: 0
        inWeight: 0.33333334
        outWeight: 0.33333334
      - serializedVersion: 3
        time: 5
        value: 46.99
        inSlope: 0
        outSlope: 0
        tangentMode: 136
        weightedMode: 0
        inWeight: 0.33333334
        outWeight: 0.33333334
      - serializedVersion: 3
        time: 6
        value: 45.97
        inSlope: -1.003334
        outSlope: -1.003334
        tangentMode: 136
        weightedMode: 0
        inWeight: 0.33333334
        outWeight: 0.33333334
      - serializedVersion: 3
        time: 8
        value: 43.98
        inSlope: -0.9275007
        outSlope: -0.9275007
        tangentMode: 136
        weightedMode: 0
        inWeight: 0.33333334
        outWeight: 0.33333334
      - serializedVersion: 3
        time: 10
        value: 42.26
        inSlope: 0
        outSlope: 0
        tangentMode: 136
        weightedMode: 0
        inWeight: 0.33333334
        outWeight: 0.33333334
      m_PreInfinity: 2
      m_PostInfinity: 2
      m_RotationOrder: 4
    attribute: m_LocalPosition.x
    path: 
    classID: 4
    script: {fileID: 0}
  - curve:
      serializedVersion: 2
      m_Curve:
      - serializedVersion: 3
        time: 0
        value: -2.88
        inSlope: 0
        outSlope: 0
        tangentMode: 136
        weightedMode: 0
        inWeight: 0.33333334
        outWeight: 0.33333334
      - serializedVersion: 3
        time: 2
        value: -2.88
        inSlope: 0
        outSlope: 0
        tangentMode: 136
        weightedMode: 0
        inWeight: 0.33333334
        outWeight: 0.33333334
      - serializedVersion: 3
        time: 4
        value: -2.88
        inSlope: 0
        outSlope: 0
        tangentMode: 136
        weightedMode: 0
        inWeight: 0.33333334
        outWeight: 0.33333334
      - serializedVersion: 3
        time: 5
        value: -2.88
        inSlope: 0
        outSlope: 0
        tangentMode: 136
        weightedMode: 0
        inWeight: 0.33333334
        outWeight: 0.33333334
      - serializedVersion: 3
        time: 6
        value: -2.88
        inSlope: 0
        outSlope: 0
        tangentMode: 136
        weightedMode: 0
        inWeight: 0.33333334
        outWeight: 0.33333334
      - serializedVersion: 3
        time: 8
        value: -2.88
        inSlope: 0
        outSlope: 0
        tangentMode: 136
        weightedMode: 0
        inWeight: 0.33333334
        outWeight: 0.33333334
      - serializedVersion: 3
        time: 10
        value: -2.88
        inSlope: 0
        outSlope: 0
        tangentMode: 136
        weightedMode: 0
        inWeight: 0.33333334
        outWeight: 0.33333334
      m_PreInfinity: 2
      m_PostInfinity: 2
      m_RotationOrder: 4
    attribute: m_LocalPosition.y
    path: 
    classID: 4
    script: {fileID: 0}
  - curve:
      serializedVersion: 2
      m_Curve:
      - serializedVersion: 3
        time: 0
        value: 0
        inSlope: 0
        outSlope: 0
        tangentMode: 136
        weightedMode: 0
        inWeight: 0.33333334
        outWeight: 0.33333334
      - serializedVersion: 3
        time: 2
        value: 0
        inSlope: 0
        outSlope: 0
        tangentMode: 136
        weightedMode: 0
        inWeight: 0.33333334
        outWeight: 0.33333334
      - serializedVersion: 3
        time: 4
        value: 0
        inSlope: 0
        outSlope: 0
        tangentMode: 136
        weightedMode: 0
        inWeight: 0.33333334
        outWeight: 0.33333334
      - serializedVersion: 3
        time: 5
        value: 0
        inSlope: 0
        outSlope: 0
        tangentMode: 136
        weightedMode: 0
        inWeight: 0.33333334
        outWeight: 0.33333334
      - serializedVersion: 3
        time: 6
        value: 0
        inSlope: 0
        outSlope: 0
        tangentMode: 136
        weightedMode: 0
        inWeight: 0.33333334
        outWeight: 0.33333334
      - serializedVersion: 3
        time: 8
        value: 0
        inSlope: 0
        outSlope: 0
        tangentMode: 136
        weightedMode: 0
        inWeight: 0.33333334
        outWeight: 0.33333334
      - serializedVersion: 3
        time: 10
        value: 0
        inSlope: 0
        outSlope: 0
        tangentMode: 136
        weightedMode: 0
        inWeight: 0.33333334
        outWeight: 0.33333334
      m_PreInfinity: 2
      m_PostInfinity: 2
      m_RotationOrder: 4
    attribute: m_LocalPosition.z
    path: 
    classID: 4
    script: {fileID: 0}
  m_EulerEditorCurves: []
  m_HasGenericRootTransform: 1
  m_HasMotionFloatCurves: 0
  m_Events: []
